{
    "fields": [
        {
            "name": "name",
            "type": "string"
        },
        {
            "name": "email",
            "type": "email"
        },
        {
            "name": "password",
            "type": "password"
        },
        {
            "name": "confirm_password",
            "type": "confirm_password"
        },
        {
            "name": "email_verified",
            "type": "boolean"
        },
        {
            "name": "phone",
            "type": "text"
        },
        {
            "name": "phone_verified",
            "type": "boolean"
        }
    ],
    "relationships": [
        {
            "name": "brand",
            "type": "hasOne",
            "class": "App\\Brand"
        },
        {
            "name": "consumer",
            "type": "hasOne",
            "class": "App\\Consumer"
        }
    ],
    "validations": [
        {
            "field": "name",
            "rules": "required|max:10"
        },
        {
            "field": "email",
            "rules": "required|email"
        },
        {
            "field": "password",
            "rules": "required|email"
        },
        {
            "field": "confirm_password",
            "rules": "required|same:password"
        }
    ]
}
